January 01   0835 1732  
January 02   0835 1733  
January 03   0835 1734  
January 04   0835 1735  
January 05   0835 1736  
January 06   0835 1737  
January 07   0835 1738  
January 08   0834 1739  
January 09   0834 1740  
January 10   0834 1741  
January 11   0833 1742  
January 12   0833 1743  
January 13   0833 1745  
January 14   0832 1746  
January 15   0832 1747  
January 16   0831 1748  
January 17   0831 1749  
January 18   0830 1751  
January 19   0829 1752  
January 20   0829 1753  
January 21   0828 1755  
January 22   0827 1756  
January 23   0826 1757  
January 24   0825 1759  
January 25   0825 1800  
January 26   0824 1801  
January 27   0823 1803  
January 28   0822 1804  
January 29   0821 1805  
January 30   0820 1807  
January 31   0819 1808  
Febuary 01   0818 1810  
Febuary 02   0816 1811  
Febuary 03   0815 1812  
Febuary 04   0814 1814  
Febuary 05   0813 1815  
Febuary 06   0812 1817  
Febuary 07   0810 1818  
Febuary 08   0809 1819  
Febuary 09   0808 1821  
Febuary 10   0806 1822  
Febuary 11   0805 1823  
Febuary 12   0804 1825  
Febuary 13   0802 1826  
Febuary 14   0801 1828  
Febuary 15   0759 1829  
Febuary 16   0758 1830  
Febuary 17   0756 1832  
Febuary 18   0755 1833  
Febuary 19   0753 1834  
Febuary 20   0752 1836  
Febuary 21   0750 1837  
Febuary 22   0749 1838  
Febuary 23   0747 1840  
Febuary 24   0745 1841  
Febuary 25   0744 1843  
Febuary 26   0742 1844  
Febuary 27   0740 1845  
Febuary 28   0739 1846  
Febuary 29   0739 1846            
March 01   0737 1848  
March 02   0735 1849  
March 03   0734 1850  
March 04   0732 1852  
March 05   0730 1853  
March 06   0728 1854  
March 07   0727 1856  
March 08   0725 1857  
March 09   0723 1858  
March 10   0721 1859  
March 11   0720 1901  
March 12   0718 1902  
March 13   0716 1903  
March 14   0714 1904  
March 15   0712 1906  
March 16   0711 1907  
March 17   0709 1908  
March 18   0707 1909  
March 19   0705 1911  
March 20   0703 1912  
March 21   0701 1913  
March 22   0700 1914  
March 23   0658 1916  
March 24   0656 1917  
March 25   0654 1918  
March 26   0652 1919  
March 27   0651 1921  
March 28   0649 1922  
March 29   0647 1923  
March 30   0645 1924  
March 31   0643 1925  
April 01   0641 1927  
April 02   0640 1928  
April 03   0638 1929  
April 04   0636 1930  
April 05   0634 1932  
April 06   0632 1933  
April 07   0631 1934  
April 08   0629 1935  
April 09   0627 1936  
April 10   0625 1938  
April 11   0624 1939  
April 12   0622 1940  
April 13   0620 1941  
April 14   0618 1942  
April 15   0617 1944  
April 16   0615 1945  
April 17   0613 1946  
April 18   0612 1947  
April 19   0610 1949  
April 20   0608 1950  
April 21   0607 1951  
April 22   0605 1952  
April 23   0604 1953  
April 24   0602 1955  
April 25   0600 1956  
April 26   0559 1957  
April 27   0557 1958  
April 28   0556 1959  
April 29   0554 2001  
April 30   0553 2002  
May 01   0551 2003  
May 02   0550 2004  
May 03   0549 2005  
May 04   0547 2007  
May 05   0546 2008  
May 06   0545 2009  
May 07   0543 2010  
May 08   0542 2011  
May 09   0541 2012  
May 10   0539 2014  
May 11   0538 2015  
May 12   0537 2016  
May 13   0536 2017  
May 14   0535 2018  
May 15   0534 2019  
May 16   0533 2020  
May 17   0531 2021  
May 18   0530 2023  
May 19   0529 2024  
May 20   0528 2025  
May 21   0528 2026  
May 22   0527 2027  
May 23   0526 2028  
May 24   0525 2029  
May 25   0524 2030  
May 26   0523 2031  
May 27   0523 2032  
May 28   0522 2033  
May 29   0521 2033  
May 30   0521 2034  
May 31   0520 2035  
June 01   0520 2036  
June 02   0519 2037  
June 03   0519 2038  
June 04   0518 2038  
June 05   0518 2039  
June 06   0517 2040  
June 07   0517 2040  
June 08   0517 2041  
June 09   0517 2042  
June 10   0516 2042  
June 11   0516 2043  
June 12   0516 2043  
June 13   0516 2044  
June 14   0516 2044  
June 15   0516 2045  
June 16   0516 2045  
June 17   0516 2046  
June 18   0516 2046  
June 19   0516 2046  
June 20   0516 2046  
June 21   0516 2047  
June 22   0517 2047  
June 23   0517 2047  
June 24   0517 2047  
June 25   0518 2047  
June 26   0518 2047  
June 27   0518 2047  
June 28   0519 2047  
June 29   0519 2047  
June 30   0520 2047  
July 01   0520 2047  
July 02   0521 2047  
July 03   0521 2046  
July 04   0522 2046  
July 05   0523 2046  
July 06   0523 2045  
July 07   0524 2045  
July 08   0525 2045  
July 09   0525 2044  
July 10   0526 2044  
July 11   0527 2043  
July 12   0528 2043  
July 13   0529 2042  
July 14   0529 2041  
July 15   0530 2041  
July 16   0531 2040  
July 17   0532 2039  
July 18   0533 2038  
July 19   0534 2038  
July 20   0535 2037  
July 21   0536 2036  
July 22   0537 2035  
July 23   0538 2034  
July 24   0539 2033  
July 25   0540 2032  
July 26   0541 2031  
July 27   0542 2030  
July 28   0543 2029  
July 29   0544 2028  
July 30   0545 2026  
July 31   0546 2025  
August 01   0547 2024  
August 02   0549 2023  
August 03   0550 2022  
August 04   0551 2020  
August 05   0552 2019  
August 06   0553 2018  
August 07   0554 2016  
August 08   0555 2015  
August 09   0556 2013  
August 10   0557 2012  
August 11   0559 2011  
August 12   0600 2009  
August 13   0601 2008  
August 14   0602 2006  
August 15   0603 2005  
August 16   0604 2003  
August 17   0605 2001  
August 18   0607 2000  
August 19   0608 1958  
August 20   0609 1957  
August 21   0610 1955  
August 22   0611 1953  
August 23   0612 1952  
August 24   0613 1950  
August 25   0615 1948  
August 26   0616 1947  
August 27   0617 1945  
August 28   0618 1943  
August 29   0619 1941  
August 30   0620 1940  
August 31   0621 1938  
September 01   0623 1936  
September 02   0624 1934  
September 03   0625 1932  
September 04   0626 1931  
September 05   0627 1929  
September 06   0628 1927  
September 07   0629 1925  
September 08   0631 1923  
September 09   0632 1922  
September 10   0633 1920  
September 11   0634 1918  
September 12   0635 1916  
September 13   0636 1914  
September 14   0637 1912  
September 15   0639 1910  
September 16   0640 1909  
September 17   0641 1907  
September 18   0642 1905  
September 19   0643 1903  
September 20   0644 1901  
September 21   0646 1859  
September 22   0647 1857  
September 23   0648 1856  
September 24   0649 1854  
September 25   0650 1852  
September 26   0651 1850  
September 27   0652 1848  
September 28   0654 1846  
September 29   0655 1845  
September 30   0656 1843  
October 01   0657 1841  
October 02   0658 1839  
October 03   0700 1837  
October 04   0701 1835  
October 05   0702 1834  
October 06   0703 1832  
October 07   0704 1830  
October 08   0706 1828  
October 09   0707 1826  
October 10   0708 1825  
October 11   0709 1823  
October 12   0710 1821  
October 13   0712 1820  
October 14   0713 1818  
October 15   0714 1816  
October 16   0715 1814  
October 17   0717 1813  
October 18   0718 1811  
October 19   0719 1809  
October 20   0720 1808  
October 21   0722 1806  
October 22   0723 1805  
October 23   0724 1803  
October 24   0726 1802  
October 25   0727 1800  
October 26   0728 1758  
October 27   0730 1757  
October 28   0731 1756  
October 29   0732 1754  
October 30   0734 1753  
October 31   0735 1751  
November 01   0736 1750  
November 02   0737 1749  
November 03   0739 1747  
November 04   0740 1746  
November 05   0741 1745  
November 06   0743 1743  
November 07   0744 1742  
November 08   0745 1741  
November 09   0747 1740  
November 10   0748 1739  
November 11   0749 1737  
November 12   0751 1736  
November 13   0752 1735  
November 14   0753 1734  
November 15   0755 1733  
November 16   0756 1732  
November 17   0757 1732  
November 18   0759 1731  
November 19   0800 1730  
November 20   0801 1729  
November 21   0803 1728  
November 22   0804 1727  
November 23   0805 1727  
November 24   0806 1726  
November 25   0807 1725  
November 26   0809 1725  
November 27   0810 1724  
November 28   0811 1724  
November 29   0812 1723  
November 30   0813 1723  
December 01   0815 1723
December 02   0816 1722
December 03   0817 1722
December 04   0818 1722
December 05   0819 1722
December 06   0820 1721
December 07   0821 1721
December 08   0822 1721
December 09   0823 1721
December 10   0824 1721
December 11   0825 1721
December 12   0825 1721
December 13   0826 1721
December 14   0827 1722
December 15   0828 1722
December 16   0828 1722
December 17   0829 1722
December 18   0830 1723
December 19   0830 1723
December 20   0831 1724
December 21   0832 1724
December 22   0832 1724
December 23   0833 1725
December 24   0833 1726
December 25   0833 1726
December 26   0834 1727
December 27   0834 1728
December 28   0834 1728
December 29   0834 1729
December 30   0835 1730
December 31   0835 1731
